^C:\USERS\NEDİM\DESKTOP\OOP_LAB\OOP-I-5-REPOSITORY-AREA\OOP-I-5-LAB01\DEBUG\COMMAND.OBJ|C:\USERS\NEDİM\DESKTOP\OOP_LAB\OOP-I-5-REPOSITORY-AREA\OOP-I-5-LAB01\DEBUG\ENGINE.OBJ|C:\USERS\NEDİM\DESKTOP\OOP_LAB\OOP-I-5-REPOSITORY-AREA\OOP-I-5-LAB01\DEBUG\INPUT_FILE.OBJ|C:\USERS\NEDİM\DESKTOP\OOP_LAB\OOP-I-5-REPOSITORY-AREA\OOP-I-5-LAB01\DEBUG\MAIN.OBJ|C:\USERS\NEDİM\DESKTOP\OOP_LAB\OOP-I-5-REPOSITORY-AREA\OOP-I-5-LAB01\DEBUG\OBSERVABLE.OBJ|C:\USERS\NEDİM\DESKTOP\OOP_LAB\OOP-I-5-REPOSITORY-AREA\OOP-I-5-LAB01\DEBUG\OUTPUT_FILE.OBJ|C:\USERS\NEDİM\DESKTOP\OOP_LAB\OOP-I-5-REPOSITORY-AREA\OOP-I-5-LAB01\DEBUG\TANK.OBJ|C:\USERS\NEDİM\DESKTOP\OOP_LAB\OOP-I-5-REPOSITORY-AREA\OOP-I-5-LAB01\DEBUG\TANKOPERATION.OBJ|C:\USERS\NEDİM\DESKTOP\OOP_LAB\OOP-I-5-REPOSITORY-AREA\OOP-I-5-LAB01\DEBUG\VALVE.OBJ
C:\USERS\NEDİM\DESKTOP\OOP_LAB\OOP-I-5-REPOSITORY-AREA\OOP-I-5-LAB01\DEBUG\OOP-I-5-LAB01.EXE
C:\USERS\NEDİM\DESKTOP\OOP_LAB\OOP-I-5-REPOSITORY-AREA\OOP-I-5-LAB01\DEBUG\OOP-I-5-LAB01.ILK
C:\USERS\NEDİM\DESKTOP\OOP_LAB\OOP-I-5-REPOSITORY-AREA\OOP-I-5-LAB01\DEBUG\OOP-I-5-LAB01.PDB
