^C:\USERS\NEDİM\DESKTOP\OOP_LAB\OOP-I-5-REPOSITORY-AREA\OOP-I-5-LAB01\DEBUG\COMMAND.OBJ|C:\USERS\NEDİM\DESKTOP\OOP_LAB\OOP-I-5-REPOSITORY-AREA\OOP-I-5-LAB01\DEBUG\ENGINE.OBJ|C:\USERS\NEDİM\DESKTOP\OOP_LAB\OOP-I-5-REPOSITORY-AREA\OOP-I-5-LAB01\DEBUG\INPUT_FILE.OBJ|C:\USERS\NEDİM\DESKTOP\OOP_LAB\OOP-I-5-REPOSITORY-AREA\OOP-I-5-LAB01\DEBUG\MAIN.OBJ|C:\USERS\NEDİM\DESKTOP\OOP_LAB\OOP-I-5-REPOSITORY-AREA\OOP-I-5-LAB01\DEBUG\OBSERVABLE.OBJ|C:\USERS\NEDİM\DESKTOP\OOP_LAB\OOP-I-5-REPOSITORY-AREA\OOP-I-5-LAB01\DEBUG\OUTPUT_FILE.OBJ|C:\USERS\NEDİM\DESKTOP\OOP_LAB\OOP-I-5-REPOSITORY-AREA\OOP-I-5-LAB01\DEBUG\TANK.OBJ|C:\USERS\NEDİM\DESKTOP\OOP_LAB\OOP-I-5-REPOSITORY-AREA\OOP-I-5-LAB01\DEBUG\TANKOPERATION.OBJ|C:\USERS\NEDİM\DESKTOP\OOP_LAB\OOP-I-5-REPOSITORY-AREA\OOP-I-5-LAB01\DEBUG\VALVE.OBJ
C:\PROGRAM FILES (X86)\WINDOWS KITS\10\LIB\10.0.18362.0\UM\X86\KERNEL32.LIB
C:\PROGRAM FILES (X86)\WINDOWS KITS\10\LIB\10.0.18362.0\UM\X86\USER32.LIB
C:\PROGRAM FILES (X86)\WINDOWS KITS\10\LIB\10.0.18362.0\UM\X86\GDI32.LIB
C:\PROGRAM FILES (X86)\WINDOWS KITS\10\LIB\10.0.18362.0\UM\X86\WINSPOOL.LIB
C:\PROGRAM FILES (X86)\WINDOWS KITS\10\LIB\10.0.18362.0\UM\X86\COMDLG32.LIB
C:\PROGRAM FILES (X86)\WINDOWS KITS\10\LIB\10.0.18362.0\UM\X86\ADVAPI32.LIB
C:\PROGRAM FILES (X86)\WINDOWS KITS\10\LIB\10.0.18362.0\UM\X86\SHELL32.LIB
C:\PROGRAM FILES (X86)\WINDOWS KITS\10\LIB\10.0.18362.0\UM\X86\OLE32.LIB
C:\PROGRAM FILES (X86)\WINDOWS KITS\10\LIB\10.0.18362.0\UM\X86\OLEAUT32.LIB
C:\PROGRAM FILES (X86)\WINDOWS KITS\10\LIB\10.0.18362.0\UM\X86\UUID.LIB
C:\PROGRAM FILES (X86)\WINDOWS KITS\10\LIB\10.0.18362.0\UM\X86\ODBC32.LIB
C:\PROGRAM FILES (X86)\WINDOWS KITS\10\LIB\10.0.18362.0\UM\X86\ODBCCP32.LIB
C:\USERS\NEDİM\DESKTOP\OOP_LAB\OOP-I-5-REPOSITORY-AREA\OOP-I-5-LAB01\DEBUG\COMMAND.OBJ
C:\USERS\NEDİM\DESKTOP\OOP_LAB\OOP-I-5-REPOSITORY-AREA\OOP-I-5-LAB01\DEBUG\ENGINE.OBJ
C:\USERS\NEDİM\DESKTOP\OOP_LAB\OOP-I-5-REPOSITORY-AREA\OOP-I-5-LAB01\DEBUG\INPUT_FILE.OBJ
C:\USERS\NEDİM\DESKTOP\OOP_LAB\OOP-I-5-REPOSITORY-AREA\OOP-I-5-LAB01\DEBUG\MAIN.OBJ
C:\USERS\NEDİM\DESKTOP\OOP_LAB\OOP-I-5-REPOSITORY-AREA\OOP-I-5-LAB01\DEBUG\OBSERVABLE.OBJ
C:\USERS\NEDİM\DESKTOP\OOP_LAB\OOP-I-5-REPOSITORY-AREA\OOP-I-5-LAB01\DEBUG\OUTPUT_FILE.OBJ
C:\USERS\NEDİM\DESKTOP\OOP_LAB\OOP-I-5-REPOSITORY-AREA\OOP-I-5-LAB01\DEBUG\TANK.OBJ
C:\USERS\NEDİM\DESKTOP\OOP_LAB\OOP-I-5-REPOSITORY-AREA\OOP-I-5-LAB01\DEBUG\TANKOPERATION.OBJ
C:\USERS\NEDİM\DESKTOP\OOP_LAB\OOP-I-5-REPOSITORY-AREA\OOP-I-5-LAB01\DEBUG\VALVE.OBJ
C:\WINDOWS\SYSTEM32\TZRES.DLL
C:\WINDOWS\GLOBALIZATION\SORTING\SORTDEFAULT.NLS
C:\PROGRAM FILES (X86)\MICROSOFT VISUAL STUDIO\2019\COMMUNITY\VC\TOOLS\MSVC\14.28.29333\LIB\X86\MSVCPRTD.LIB
C:\PROGRAM FILES (X86)\MICROSOFT VISUAL STUDIO\2019\COMMUNITY\VC\TOOLS\MSVC\14.28.29333\LIB\X86\MSVCRTD.LIB
C:\PROGRAM FILES (X86)\MICROSOFT VISUAL STUDIO\2019\COMMUNITY\VC\TOOLS\MSVC\14.28.29333\LIB\X86\OLDNAMES.LIB
C:\PROGRAM FILES (X86)\MICROSOFT VISUAL STUDIO\2019\COMMUNITY\VC\TOOLS\MSVC\14.28.29333\LIB\X86\VCRUNTIMED.LIB
C:\PROGRAM FILES (X86)\WINDOWS KITS\10\LIB\10.0.18362.0\UCRT\X86\UCRTD.LIB
C:\PROGRAM FILES (X86)\MICROSOFT VISUAL STUDIO\2019\COMMUNITY\VC\TOOLS\MSVC\14.28.29333\BIN\HOSTX86\X86\MSPDBSRV.EXE
